{
  "player_number": "Four",
  "vision_bottom": {
    "camera_matrix_parameters": { "extrinsic_rotations": [0, -4.7, 0] }
  },
  "vision_top": {
    "camera_matrix_parameters": { "extrinsic_rotations": [0, -6.0, 0] }
  }
}
